Solutions to Hadley Wickhamâ€™s ggplot2: Elegant graphics for Data Analysis 2nd ed.
…
2.How can you find out what other datasets are included with ggplot2?

#syntax holds true to get datasets available in any package.
data(package = "ggplot2")

3.Apart from the US, most countries use fuel consumption (fuel consumed over fixed distance) rather than fuel economy (distance travelled with fixed amount of fuel). How could you convert cty and hwy into the European standard of l/100km?

# 1 mpg = 235.21 l/100km (https://www.unitjuggler.com/convert-fuelconsumption-from-mpg-to-lper100km.html)
mpg%>%mutate(cty = cty*235.21,hwy = hwy*235.21)

## # A tibble: 234 x 11
##    manufacturer model    displ  year   cyl trans   drv     cty   hwy fl   
##    <chr>        <chr>    <dbl> <int> <int> <chr>   <chr> <dbl> <dbl> <chr>
##  1 audi         a4         1.8  1999     4 auto(l~ f     4234. 6821. p    
##  2 audi         a4         1.8  1999     4 manual~ f     4939. 6821. p    
##  3 audi         a4         2    2008     4 manual~ f     4704. 7292. p    
##  4 audi         a4         2    2008     4 auto(a~ f     4939. 7056. p    
##  5 audi         a4         2.8  1999     6 auto(l~ f     3763. 6115. p    
##  6 audi         a4         2.8  1999     6 manual~ f     4234. 6115. p    
##  7 audi         a4         3.1  2008     6 auto(a~ f     4234. 6351. p    
##  8 audi         a4 quat~   1.8  1999     4 manual~ 4     4234. 6115. p    
##  9 audi         a4 quat~   1.8  1999     4 auto(l~ 4     3763. 5880. p    
## 10 audi         a4 quat~   2    2008     4 manual~ 4     4704. 6586. p    
## # ... with 224 more rows, and 1 more variable: class <chr>
…
#most models in dataset. Most variations would mean the distinct count of number of times a model is repeated.
mpg%>%count(model,sort = T)

## # A tibble: 38 x 2
##    model                   n
##    <chr>               <int>
##  1 caravan 2wd            11
##  2 ram 1500 pickup 4wd    10
##  3 civic                   9
##  4 dakota pickup 4wd       9
##  5 jetta                   9
##  6 mustang                 9
##  7 a4 quattro              8
##  8 grand cherokee 4wd      8
##  9 impreza awd             8
## 10 a4                      7
## # ... with 28 more rows

#remove the reduntant specs
mpg%>%mutate(model=str_replace_all(model,c("quattro" = "","2wd" = "","4wd" = "")))

## # A tibble: 234 x 11
##    manufacturer model displ  year   cyl trans      drv     cty   hwy fl   
##    <chr>        <chr> <dbl> <int> <int> <chr>      <chr> <int> <int> <chr>
##  1 audi         a4      1.8  1999     4 auto(l5)   f        18    29 p    
##  2 audi         a4      1.8  1999     4 manual(m5) f        21    29 p    
##  3 audi         a4      2    2008     4 manual(m6) f        20    31 p    
##  4 audi         a4      2    2008     4 auto(av)   f        21    30 p    
##  5 audi         a4      2.8  1999     6 auto(l5)   f        16    26 p    
##  6 audi         a4      2.8  1999     6 manual(m5) f        18    26 p    
##  7 audi         a4      3.1  2008     6 auto(av)   f        18    27 p    
##  8 audi         "a4 "   1.8  1999     4 manual(m5) 4        18    26 p    
##  9 audi         "a4 "   1.8  1999     4 auto(l5)   4        16    25 p    
## 10 audi         "a4 "   2    2008     4 manual(m6) 4        20    28 p    
## # ... with 224 more rows, and 1 more variable: class <chr>

#Rechecking the max variation in models.
mpg%>%
  mutate(model=str_replace_all(model,c("quattro" = "","2wd" = "","4wd" = "")))%>%
  mutate_if(is.character,trimws)%>%
  count(model,sort = T)

## # A tibble: 37 x 2
##    model               n
##    <chr>           <int>
##  1 a4                 15
##  2 caravan            11
##  3 ram 1500 pickup    10
##  4 civic               9
##  5 dakota pickup       9
##  6 jetta               9
##  7 mustang             9
##  8 grand cherokee      8
##  9 impreza awd         8
## 10 camry               7
## # ... with 27 more rows
…
